<?xml version="1.0" encoding="UTF-8" standalone="no"?>
<!-- Created with Inkscape (http://www.inkscape.org/) -->

<svg
   xmlns:dc="http://purl.org/dc/elements/1.1/"
   xmlns:cc="http://creativecommons.org/ns#"
   xmlns:rdf="http://www.w3.org/1999/02/22-rdf-syntax-ns#"
   xmlns:svg="http://www.w3.org/2000/svg"
   xmlns="http://www.w3.org/2000/svg"
   xmlns:xlink="http://www.w3.org/1999/xlink"
   xmlns:sodipodi="http://sodipodi.sourceforge.net/DTD/sodipodi-0.dtd"
   xmlns:inkscape="http://www.inkscape.org/namespaces/inkscape"
   width="210mm"
   height="297mm"
   viewBox="0 0 744.09448819 1052.3622047"
   id="svg2"
   version="1.1"
   inkscape:version="0.91 r13725"
   sodipodi:docname="template.svg">
  <defs
     id="defs4" />
  <sodipodi:namedview
     id="base"
     pagecolor="#ffffff"
     bordercolor="#666666"
     borderopacity="1.0"
     inkscape:pageopacity="0.0"
     inkscape:pageshadow="2"
     inkscape:zoom="1.07"
     inkscape:cx="261.1437"
     inkscape:cy="764.90023"
     inkscape:document-units="px"
     inkscape:current-layer="layer2"
     showgrid="false"
     inkscape:window-width="1280"
     inkscape:window-height="999"
     inkscape:window-x="0"
     inkscape:window-y="0"
     inkscape:window-maximized="1" />
  <metadata
     id="metadata7">
    <rdf:RDF>
      <cc:Work
         rdf:about="">
        <dc:format>image/svg+xml</dc:format>
        <dc:type
           rdf:resource="http://purl.org/dc/dcmitype/StillImage" />
        <dc:title></dc:title>
      </cc:Work>
    </rdf:RDF>
  </metadata>
  <g
     inkscape:label="Layer 1"
     inkscape:groupmode="layer"
     id="layer1"
     sodipodi:insensitive="true">
    <g
       id="g4148"
       transform="translate(-2.647748,-436.99994)">
      <image
         sodipodi:absref="/home/hokum/Documents/haskell/qr_code_generator/qrgen/${qr_code_image}"
         xlink:href="${qr_code_image}"
         width="148.93549"
         height="148.93549"
         preserveAspectRatio="none"
         id="image10"
         x="205.48605"
         y="451.71335"
         style="image-rendering:optimizeSpeed" />
      <image
         sodipodi:absref="/home/hokum/Documents/haskell/qr_code_generator/qrgen/${qr_code_image}"
         xlink:href="${qr_code_image}"
         style="image-rendering:optimizeSpeed"
         y="451.71335"
         x="394.96838"
         id="image4142"
         preserveAspectRatio="none"
         height="148.93549"
         width="148.93549" />
      <image
         sodipodi:absref="/home/hokum/Documents/haskell/qr_code_generator/qrgen/${qr_code_image}"
         xlink:href="${qr_code_image}"
         width="148.93549"
         height="148.93549"
         preserveAspectRatio="none"
         id="image4144"
         x="16.003754"
         y="451.71335"
         style="image-rendering:optimizeSpeed" />
      <image
         sodipodi:absref="/home/hokum/Documents/haskell/qr_code_generator/qrgen/${qr_code_image}"
         xlink:href="${qr_code_image}"
         style="image-rendering:optimizeSpeed"
         y="451.71335"
         x="584.45074"
         id="image4146"
         preserveAspectRatio="none"
         height="148.93549"
         width="148.93549" />
    </g>
    <g
       transform="translate(-2.647748,-262.01288)"
       id="g4154">
      <image
         sodipodi:absref="/home/hokum/Documents/haskell/qr_code_generator/qrgen/${qr_code_image}"
         xlink:href="${qr_code_image}"
         style="image-rendering:optimizeSpeed"
         y="451.71335"
         x="205.48605"
         id="image4156"
         preserveAspectRatio="none"
         height="148.93549"
         width="148.93549" />
      <image
         sodipodi:absref="/home/hokum/Documents/haskell/qr_code_generator/qrgen/${qr_code_image}"
         xlink:href="${qr_code_image}"
         width="148.93549"
         height="148.93549"
         preserveAspectRatio="none"
         id="image4158"
         x="394.96838"
         y="451.71335"
         style="image-rendering:optimizeSpeed" />
      <image
         sodipodi:absref="/home/hokum/Documents/haskell/qr_code_generator/qrgen/${qr_code_image}"
         xlink:href="${qr_code_image}"
         style="image-rendering:optimizeSpeed"
         y="451.71335"
         x="16.003754"
         id="image4160"
         preserveAspectRatio="none"
         height="148.93549"
         width="148.93549" />
      <image
         sodipodi:absref="/home/hokum/Documents/haskell/qr_code_generator/qrgen/${qr_code_image}"
         xlink:href="${qr_code_image}"
         width="148.93549"
         height="148.93549"
         preserveAspectRatio="none"
         id="image4162"
         x="584.45074"
         y="451.71335"
         style="image-rendering:optimizeSpeed" />
    </g>
    <g
       id="g4164"
       transform="translate(-2.647748,-87.025818)">
      <image
         sodipodi:absref="/home/hokum/Documents/haskell/qr_code_generator/qrgen/${qr_code_image}"
         xlink:href="${qr_code_image}"
         width="148.93549"
         height="148.93549"
         preserveAspectRatio="none"
         id="image4166"
         x="205.48605"
         y="451.71335"
         style="image-rendering:optimizeSpeed" />
      <image
         sodipodi:absref="/home/hokum/Documents/haskell/qr_code_generator/qrgen/${qr_code_image}"
         xlink:href="${qr_code_image}"
         style="image-rendering:optimizeSpeed"
         y="451.71335"
         x="394.96838"
         id="image4168"
         preserveAspectRatio="none"
         height="148.93549"
         width="148.93549" />
      <image
         sodipodi:absref="/home/hokum/Documents/haskell/qr_code_generator/qrgen/${qr_code_image}"
         xlink:href="${qr_code_image}"
         width="148.93549"
         height="148.93549"
         preserveAspectRatio="none"
         id="image4170"
         x="16.003754"
         y="451.71335"
         style="image-rendering:optimizeSpeed" />
      <image
         sodipodi:absref="/home/hokum/Documents/haskell/qr_code_generator/qrgen/${qr_code_image}"
         xlink:href="${qr_code_image}"
         style="image-rendering:optimizeSpeed"
         y="451.71335"
         x="584.45074"
         id="image4172"
         preserveAspectRatio="none"
         height="148.93549"
         width="148.93549" />
    </g>
    <g
       transform="translate(-2.647748,87.961334)"
       id="g4174">
      <image
         sodipodi:absref="/home/hokum/Documents/haskell/qr_code_generator/qrgen/${qr_code_image}"
         xlink:href="${qr_code_image}"
         style="image-rendering:optimizeSpeed"
         y="451.71335"
         x="205.48605"
         id="image4176"
         preserveAspectRatio="none"
         height="148.93549"
         width="148.93549" />
      <image
         sodipodi:absref="/home/hokum/Documents/haskell/qr_code_generator/qrgen/${qr_code_image}"
         xlink:href="${qr_code_image}"
         width="148.93549"
         height="148.93549"
         preserveAspectRatio="none"
         id="image4178"
         x="394.96838"
         y="451.71335"
         style="image-rendering:optimizeSpeed" />
      <image
         sodipodi:absref="/home/hokum/Documents/haskell/qr_code_generator/qrgen/${qr_code_image}"
         xlink:href="${qr_code_image}"
         style="image-rendering:optimizeSpeed"
         y="451.71335"
         x="16.003754"
         id="image4180"
         preserveAspectRatio="none"
         height="148.93549"
         width="148.93549" />
      <image
         sodipodi:absref="/home/hokum/Documents/haskell/qr_code_generator/qrgen/${qr_code_image}"
         xlink:href="${qr_code_image}"
         width="148.93549"
         height="148.93549"
         preserveAspectRatio="none"
         id="image4182"
         x="584.45074"
         y="451.71335"
         style="image-rendering:optimizeSpeed" />
    </g>
    <g
       id="g4184"
       transform="translate(-2.647748,262.9484)">
      <image
         sodipodi:absref="/home/hokum/Documents/haskell/qr_code_generator/qrgen/${qr_code_image}"
         xlink:href="${qr_code_image}"
         width="148.93549"
         height="148.93549"
         preserveAspectRatio="none"
         id="image4186"
         x="205.48605"
         y="451.71335"
         style="image-rendering:optimizeSpeed" />
      <image
         sodipodi:absref="/home/hokum/Documents/haskell/qr_code_generator/qrgen/${qr_code_image}"
         xlink:href="${qr_code_image}"
         style="image-rendering:optimizeSpeed"
         y="451.71335"
         x="394.96838"
         id="image4188"
         preserveAspectRatio="none"
         height="148.93549"
         width="148.93549" />
      <image
         sodipodi:absref="/home/hokum/Documents/haskell/qr_code_generator/qrgen/${qr_code_image}"
         xlink:href="${qr_code_image}"
         width="148.93549"
         height="148.93549"
         preserveAspectRatio="none"
         id="image4190"
         x="16.003754"
         y="451.71335"
         style="image-rendering:optimizeSpeed" />
      <image
         sodipodi:absref="/home/hokum/Documents/haskell/qr_code_generator/qrgen/${qr_code_image}"
         xlink:href="${qr_code_image}"
         style="image-rendering:optimizeSpeed"
         y="451.71335"
         x="584.45074"
         id="image4192"
         preserveAspectRatio="none"
         height="148.93549"
         width="148.93549" />
    </g>
    <g
       transform="translate(-2.647748,437.93549)"
       id="g4194">
      <image
         sodipodi:absref="/home/hokum/Documents/haskell/qr_code_generator/qrgen/${qr_code_image}"
         xlink:href="${qr_code_image}"
         style="image-rendering:optimizeSpeed"
         y="451.71335"
         x="205.48605"
         id="image4196"
         preserveAspectRatio="none"
         height="148.93549"
         width="148.93549" />
      <image
         sodipodi:absref="/home/hokum/Documents/haskell/qr_code_generator/qrgen/${qr_code_image}"
         xlink:href="${qr_code_image}"
         width="148.93549"
         height="148.93549"
         preserveAspectRatio="none"
         id="image4198"
         x="394.96838"
         y="451.71335"
         style="image-rendering:optimizeSpeed" />
      <image
         sodipodi:absref="/home/hokum/Documents/haskell/qr_code_generator/qrgen/${qr_code_image}"
         xlink:href="${qr_code_image}"
         style="image-rendering:optimizeSpeed"
         y="451.71335"
         x="16.003754"
         id="image4200"
         preserveAspectRatio="none"
         height="148.93549"
         width="148.93549" />
      <image
         sodipodi:absref="/home/hokum/Documents/haskell/qr_code_generator/qrgen/${qr_code_image}"
         xlink:href="${qr_code_image}"
         width="148.93549"
         height="148.93549"
         preserveAspectRatio="none"
         id="image4202"
         x="584.45074"
         y="451.71335"
         style="image-rendering:optimizeSpeed" />
    </g>
  </g>
  <g
     inkscape:groupmode="layer"
     id="layer2"
     inkscape:label="Layer 2">
    <text
       xml:space="preserve"
       style="font-style:normal;font-weight:normal;font-size:40px;line-height:125%;font-family:Sans;letter-spacing:0px;word-spacing:0px;fill:#000000;fill-opacity:1;stroke:none;stroke-width:1px;stroke-linecap:butt;stroke-linejoin:miter;stroke-opacity:1"
       x="13.518066"
       y="172.95009"
       id="text4163"
       sodipodi:linespacing="125%"><tspan
         sodipodi:role="line"
         id="tspan4165"
         x="13.518066"
         y="172.95009"
         style="font-size:10px">${qr_code_caption}</tspan></text>
    <text
       xml:space="preserve"
       style="font-style:normal;font-weight:normal;font-size:40px;line-height:125%;font-family:Sans;letter-spacing:0px;word-spacing:0px;fill:#000000;fill-opacity:1;stroke:none;stroke-width:1px;stroke-linecap:butt;stroke-linejoin:miter;stroke-opacity:1"
       x="203.02966"
       y="175.10361"
       id="text4163-8"
       sodipodi:linespacing="125%"><tspan
         sodipodi:role="line"
         id="tspan4165-5"
         x="203.02966"
         y="175.10361"
         style="font-size:10px">${qr_code_caption}</tspan></text>
    <text
       xml:space="preserve"
       style="font-style:normal;font-weight:normal;font-size:40px;line-height:125%;font-family:Sans;letter-spacing:0px;word-spacing:0px;fill:#000000;fill-opacity:1;stroke:none;stroke-width:1px;stroke-linecap:butt;stroke-linejoin:miter;stroke-opacity:1"
       x="392.54126"
       y="172.29987"
       id="text4163-4"
       sodipodi:linespacing="125%"><tspan
         sodipodi:role="line"
         id="tspan4165-0"
         x="392.54126"
         y="172.29987"
         style="font-size:10px">${qr_code_caption}</tspan></text>
    <text
       xml:space="preserve"
       style="font-style:normal;font-weight:normal;font-size:40px;line-height:125%;font-family:Sans;letter-spacing:0px;word-spacing:0px;fill:#000000;fill-opacity:1;stroke:none;stroke-width:1px;stroke-linecap:butt;stroke-linejoin:miter;stroke-opacity:1"
       x="582.05286"
       y="172.43071"
       id="text4163-0"
       sodipodi:linespacing="125%"><tspan
         sodipodi:role="line"
         id="tspan4165-2"
         x="582.05286"
         y="172.43071"
         style="font-size:10px">${qr_code_caption}</tspan></text>
    <text
       sodipodi:linespacing="125%"
       id="text4220"
       y="348.95007"
       x="13.518066"
       style="font-style:normal;font-weight:normal;font-size:40px;line-height:125%;font-family:Sans;letter-spacing:0px;word-spacing:0px;fill:#000000;fill-opacity:1;stroke:none;stroke-width:1px;stroke-linecap:butt;stroke-linejoin:miter;stroke-opacity:1"
       xml:space="preserve"><tspan
         style="font-size:10px"
         y="348.95007"
         x="13.518066"
         id="tspan4222"
         sodipodi:role="line">${qr_code_caption}</tspan></text>
    <text
       sodipodi:linespacing="125%"
       id="text4224"
       y="351.10361"
       x="203.02966"
       style="font-style:normal;font-weight:normal;font-size:40px;line-height:125%;font-family:Sans;letter-spacing:0px;word-spacing:0px;fill:#000000;fill-opacity:1;stroke:none;stroke-width:1px;stroke-linecap:butt;stroke-linejoin:miter;stroke-opacity:1"
       xml:space="preserve"><tspan
         style="font-size:10px"
         y="351.10361"
         x="203.02966"
         id="tspan4226"
         sodipodi:role="line">${qr_code_caption}</tspan></text>
    <text
       sodipodi:linespacing="125%"
       id="text4228"
       y="348.29987"
       x="392.54126"
       style="font-style:normal;font-weight:normal;font-size:40px;line-height:125%;font-family:Sans;letter-spacing:0px;word-spacing:0px;fill:#000000;fill-opacity:1;stroke:none;stroke-width:1px;stroke-linecap:butt;stroke-linejoin:miter;stroke-opacity:1"
       xml:space="preserve"><tspan
         style="font-size:10px"
         y="348.29987"
         x="392.54126"
         id="tspan4230"
         sodipodi:role="line">${qr_code_caption}</tspan></text>
    <text
       sodipodi:linespacing="125%"
       id="text4232"
       y="348.43073"
       x="582.05286"
       style="font-style:normal;font-weight:normal;font-size:40px;line-height:125%;font-family:Sans;letter-spacing:0px;word-spacing:0px;fill:#000000;fill-opacity:1;stroke:none;stroke-width:1px;stroke-linecap:butt;stroke-linejoin:miter;stroke-opacity:1"
       xml:space="preserve"><tspan
         style="font-size:10px"
         y="348.43073"
         x="582.05286"
         id="tspan4234"
         sodipodi:role="line">${qr_code_caption}</tspan></text>
    <text
       sodipodi:linespacing="125%"
       id="text4236"
       y="524.95007"
       x="13.518066"
       style="font-style:normal;font-weight:normal;font-size:40px;line-height:125%;font-family:Sans;letter-spacing:0px;word-spacing:0px;fill:#000000;fill-opacity:1;stroke:none;stroke-width:1px;stroke-linecap:butt;stroke-linejoin:miter;stroke-opacity:1"
       xml:space="preserve"><tspan
         style="font-size:10px"
         y="524.95007"
         x="13.518066"
         id="tspan4238"
         sodipodi:role="line">${qr_code_caption}</tspan></text>
    <text
       sodipodi:linespacing="125%"
       id="text4240"
       y="527.10364"
       x="203.02966"
       style="font-style:normal;font-weight:normal;font-size:40px;line-height:125%;font-family:Sans;letter-spacing:0px;word-spacing:0px;fill:#000000;fill-opacity:1;stroke:none;stroke-width:1px;stroke-linecap:butt;stroke-linejoin:miter;stroke-opacity:1"
       xml:space="preserve"><tspan
         style="font-size:10px"
         y="527.10364"
         x="203.02966"
         id="tspan4242"
         sodipodi:role="line">${qr_code_caption}</tspan></text>
    <text
       sodipodi:linespacing="125%"
       id="text4244"
       y="524.29987"
       x="392.54126"
       style="font-style:normal;font-weight:normal;font-size:40px;line-height:125%;font-family:Sans;letter-spacing:0px;word-spacing:0px;fill:#000000;fill-opacity:1;stroke:none;stroke-width:1px;stroke-linecap:butt;stroke-linejoin:miter;stroke-opacity:1"
       xml:space="preserve"><tspan
         style="font-size:10px"
         y="524.29987"
         x="392.54126"
         id="tspan4246"
         sodipodi:role="line">${qr_code_caption}</tspan></text>
    <text
       sodipodi:linespacing="125%"
       id="text4248"
       y="524.43073"
       x="582.05286"
       style="font-style:normal;font-weight:normal;font-size:40px;line-height:125%;font-family:Sans;letter-spacing:0px;word-spacing:0px;fill:#000000;fill-opacity:1;stroke:none;stroke-width:1px;stroke-linecap:butt;stroke-linejoin:miter;stroke-opacity:1"
       xml:space="preserve"><tspan
         style="font-size:10px"
         y="524.43073"
         x="582.05286"
         id="tspan4250"
         sodipodi:role="line">${qr_code_caption}</tspan></text>
    <text
       xml:space="preserve"
       style="font-style:normal;font-weight:normal;font-size:40px;line-height:125%;font-family:Sans;letter-spacing:0px;word-spacing:0px;fill:#000000;fill-opacity:1;stroke:none;stroke-width:1px;stroke-linecap:butt;stroke-linejoin:miter;stroke-opacity:1"
       x="13.518066"
       y="700.95007"
       id="text4252"
       sodipodi:linespacing="125%"><tspan
         sodipodi:role="line"
         id="tspan4254"
         x="13.518066"
         y="700.95007"
         style="font-size:10px">${qr_code_caption}</tspan></text>
    <text
       xml:space="preserve"
       style="font-style:normal;font-weight:normal;font-size:40px;line-height:125%;font-family:Sans;letter-spacing:0px;word-spacing:0px;fill:#000000;fill-opacity:1;stroke:none;stroke-width:1px;stroke-linecap:butt;stroke-linejoin:miter;stroke-opacity:1"
       x="203.02966"
       y="703.10364"
       id="text4256"
       sodipodi:linespacing="125%"><tspan
         sodipodi:role="line"
         id="tspan4258"
         x="203.02966"
         y="703.10364"
         style="font-size:10px">${qr_code_caption}</tspan></text>
    <text
       xml:space="preserve"
       style="font-style:normal;font-weight:normal;font-size:40px;line-height:125%;font-family:Sans;letter-spacing:0px;word-spacing:0px;fill:#000000;fill-opacity:1;stroke:none;stroke-width:1px;stroke-linecap:butt;stroke-linejoin:miter;stroke-opacity:1"
       x="392.54126"
       y="700.29987"
       id="text4260"
       sodipodi:linespacing="125%"><tspan
         sodipodi:role="line"
         id="tspan4262"
         x="392.54126"
         y="700.29987"
         style="font-size:10px">${qr_code_caption}</tspan></text>
    <text
       xml:space="preserve"
       style="font-style:normal;font-weight:normal;font-size:40px;line-height:125%;font-family:Sans;letter-spacing:0px;word-spacing:0px;fill:#000000;fill-opacity:1;stroke:none;stroke-width:1px;stroke-linecap:butt;stroke-linejoin:miter;stroke-opacity:1"
       x="582.05286"
       y="700.43073"
       id="text4264"
       sodipodi:linespacing="125%"><tspan
         sodipodi:role="line"
         id="tspan4266"
         x="582.05286"
         y="700.43073"
         style="font-size:10px">${qr_code_caption}</tspan></text>
    <text
       xml:space="preserve"
       style="font-style:normal;font-weight:normal;font-size:40px;line-height:125%;font-family:Sans;letter-spacing:0px;word-spacing:0px;fill:#000000;fill-opacity:1;stroke:none;stroke-width:1px;stroke-linecap:butt;stroke-linejoin:miter;stroke-opacity:1"
       x="13.518066"
       y="872.95007"
       id="text4268"
       sodipodi:linespacing="125%"><tspan
         sodipodi:role="line"
         id="tspan4270"
         x="13.518066"
         y="872.95007"
         style="font-size:10px">${qr_code_caption}</tspan></text>
    <text
       xml:space="preserve"
       style="font-style:normal;font-weight:normal;font-size:40px;line-height:125%;font-family:Sans;letter-spacing:0px;word-spacing:0px;fill:#000000;fill-opacity:1;stroke:none;stroke-width:1px;stroke-linecap:butt;stroke-linejoin:miter;stroke-opacity:1"
       x="203.02966"
       y="875.10364"
       id="text4272"
       sodipodi:linespacing="125%"><tspan
         sodipodi:role="line"
         id="tspan4274"
         x="203.02966"
         y="875.10364"
         style="font-size:10px">${qr_code_caption}</tspan></text>
    <text
       xml:space="preserve"
       style="font-style:normal;font-weight:normal;font-size:40px;line-height:125%;font-family:Sans;letter-spacing:0px;word-spacing:0px;fill:#000000;fill-opacity:1;stroke:none;stroke-width:1px;stroke-linecap:butt;stroke-linejoin:miter;stroke-opacity:1"
       x="392.54126"
       y="874.29987"
       id="text4276"
       sodipodi:linespacing="125%"><tspan
         sodipodi:role="line"
         id="tspan4278"
         x="392.54126"
         y="874.29987"
         style="font-size:10px">${qr_code_caption}</tspan></text>
    <text
       xml:space="preserve"
       style="font-style:normal;font-weight:normal;font-size:40px;line-height:125%;font-family:Sans;letter-spacing:0px;word-spacing:0px;fill:#000000;fill-opacity:1;stroke:none;stroke-width:1px;stroke-linecap:butt;stroke-linejoin:miter;stroke-opacity:1"
       x="582.05286"
       y="874.43073"
       id="text4280"
       sodipodi:linespacing="125%"><tspan
         sodipodi:role="line"
         id="tspan4282"
         x="582.05286"
         y="874.43073"
         style="font-size:10px">${qr_code_caption}</tspan></text>
    <text
       sodipodi:linespacing="125%"
       id="text4284"
       y="884.95007"
       x="13.518066"
       style="font-style:normal;font-weight:normal;font-size:40px;line-height:125%;font-family:Sans;letter-spacing:0px;word-spacing:0px;fill:#000000;fill-opacity:1;stroke:none;stroke-width:1px;stroke-linecap:butt;stroke-linejoin:miter;stroke-opacity:1"
       xml:space="preserve"><tspan
         style="font-size:10px"
         y="884.95007"
         x="13.518066"
         id="tspan4286"
         sodipodi:role="line">${qr_code_caption}</tspan></text>
    <text
       sodipodi:linespacing="125%"
       id="text4288"
       y="887.10352"
       x="203.02966"
       style="font-style:normal;font-weight:normal;font-size:40px;line-height:125%;font-family:Sans;letter-spacing:0px;word-spacing:0px;fill:#000000;fill-opacity:1;stroke:none;stroke-width:1px;stroke-linecap:butt;stroke-linejoin:miter;stroke-opacity:1"
       xml:space="preserve"><tspan
         style="font-size:10px"
         y="887.10352"
         x="203.02966"
         id="tspan4290"
         sodipodi:role="line">${qr_code_caption}</tspan></text>
    <text
       sodipodi:linespacing="125%"
       id="text4292"
       y="884.29993"
       x="392.54126"
       style="font-style:normal;font-weight:normal;font-size:40px;line-height:125%;font-family:Sans;letter-spacing:0px;word-spacing:0px;fill:#000000;fill-opacity:1;stroke:none;stroke-width:1px;stroke-linecap:butt;stroke-linejoin:miter;stroke-opacity:1"
       xml:space="preserve"><tspan
         style="font-size:10px"
         y="884.29993"
         x="392.54126"
         id="tspan4294"
         sodipodi:role="line">${qr_code_caption}</tspan></text>
    <text
       sodipodi:linespacing="125%"
       id="text4296"
       y="884.43073"
       x="582.05286"
       style="font-style:normal;font-weight:normal;font-size:40px;line-height:125%;font-family:Sans;letter-spacing:0px;word-spacing:0px;fill:#000000;fill-opacity:1;stroke:none;stroke-width:1px;stroke-linecap:butt;stroke-linejoin:miter;stroke-opacity:1"
       xml:space="preserve"><tspan
         style="font-size:10px"
         y="884.43073"
         x="582.05286"
         id="tspan4298"
         sodipodi:role="line">${qr_code_caption}</tspan></text>
  </g>
</svg>
